module angga/github/mystartup

go 1.17

require (
	github.com/dgrijalva/jwt-go v3.2.0+incompatible
	github.com/gin-gonic/gin v1.7.7
	github.com/stretchr/testify v1.7.0
	golang.org/x/crypto v0.0.0-20211215153901-e495a2d5b3d3
	gorm.io/driver/postgres v1.2.3
	gorm.io/gorm v1.22.4
	gotest.tools v2.2.0+incompatible
)

require (
	github.com/davecgh/go-spew v1.1.1 // indirect
	github.com/gin-contrib/sse v0.1.0 // indirect
	github.com/go-playground/locales v0.13.0 // indirect
	github.com/go-playground/universal-translator v0.17.0 // indirect
	github.com/go-playground/validator/v10 v10.4.1 // indirect
	github.com/golang/protobuf v1.3.3 // indirect
	github.com/google/go-cmp v0.5.6 // indirect
	github.com/jackc/chunkreader/v2 v2.0.1 // indirect
	github.com/jackc/pgconn v1.10.1 // indirect
	github.com/jackc/pgio v1.0.0 // indirect
	github.com/jackc/pgpassfile v1.0.0 // indirect
	github.com/jackc/pgproto3/v2 v2.2.0 // indirect
	github.com/jackc/pgservicefile v0.0.0-20200714003250-2b9c44734f2b // indirect
	github.com/jackc/pgtype v1.9.0 // indirect
	github.com/jackc/pgx/v4 v4.14.0 // indirect
	github.com/jinzhu/inflection v1.0.0 // indirect
	github.com/jinzhu/now v1.1.3 // indirect
	github.com/json-iterator/go v1.1.9 // indirect
	github.com/leodido/go-urn v1.2.0 // indirect
	github.com/mattn/go-isatty v0.0.12 // indirect
	github.com/modern-go/concurrent v0.0.0-20180228061459-e0a39a4cb421 // indirect
	github.com/modern-go/reflect2 v0.0.0-20180701023420-4b7aa43c6742 // indirect
	github.com/pkg/errors v0.8.1 // indirect
	github.com/pmezard/go-difflib v1.0.0 // indirect
	github.com/stretchr/objx v0.2.0 // indirect
	github.com/ugorji/go/codec v1.1.7 // indirect
	golang.org/x/sys v0.0.0-20210615035016-665e8c7367d1 // indirect
	golang.org/x/text v0.3.7 // indirect
	gopkg.in/yaml.v2 v2.2.8 // indirect
	gopkg.in/yaml.v3 v3.0.0-20200313102051-9f266ea9e77c // indirect
)
